{
    "$schema": "http://json-schema.org/draft-04/schema#",
    "definitions": {},
    "id": "http://example.com/example.json",
    "properties": {
        "api_specification": {
            "id": "/properties/api_specification",
            "type": "string"
        },
        "description": {
            "id": "/properties/description",
            "type": "string"
        },
        "error_code": {
            "id": "/properties/error_code",
            "type": "string"
        },
        "field_name": {
            "id": "/properties/field_name",
            "type": "string"
        },
        "field_value": {
            "id": "/properties/field_value",
            "type": "string"
        }
    },
    "type": "object"
}